%YAML 1.1
%TAG !u! tag:unity3d.com,2011:
--- !u!21 &2100000
Material:
  serializedVersion: 3
  m_ObjectHideFlags: 0
  m_PrefabParentObject: {fileID: 0}
  m_PrefabInternal: {fileID: 0}
  m_Name: Glow
  m_Shader: {fileID: 4800000, guid: 879559a880b2d451fa9b9ccc599581be, type: 3}
  m_ShaderKeywords: []
  m_CustomRenderQueue: 2000
  m_SavedProperties:
    serializedVersion: 2
    m_TexEnvs:
      data:
        first:
          name: _MainTex
        second:
          m_Texture: {fileID: 0}
          m_Scale: {x: 1, y: 1}
          m_Offset: {x: 0, y: 0}
      data:
        first:
          name: _DecalTex
        second:
          m_Texture: {fileID: 0}
          m_Scale: {x: 1, y: 1}
          m_Offset: {x: 0, y: 0}
      data:
        first:
          name: _DiffuseTex
        second:
          m_Texture: {fileID: 0}
          m_Scale: {x: 1, y: 1}
          m_Offset: {x: 0, y: 0}
      data:
        first:
          name: _GlowTex
        second:
          m_Texture: {fileID: 0}
          m_Scale: {x: 1, y: 1}
          m_Offset: {x: 0, y: 0}
      data:
        first:
          name: _Illum
        second:
          m_Texture: {fileID: 0}
          m_Scale: {x: 1, y: 1}
          m_Offset: {x: 0, y: 0}
      data:
        first:
          name: _Cube
        second:
          m_Texture: {fileID: 8900000, guid: 071a7ba19bf038f47a9121da42807f0a, type: 2}
          m_Scale: {x: 1, y: 1}
          m_Offset: {x: 0, y: 0}
      data:
        first:
          name: _LightmapTex
        second:
          m_Texture: {fileID: 0}
          m_Scale: {x: 1, y: 1}
          m_Offset: {x: 0, y: 0}
      data:
        first:
          name: _Masks
        second:
          m_Texture: {fileID: 0}
          m_Scale: {x: 1, y: 1}
          m_Offset: {x: 0, y: 0}
    m_Floats:
      data:
        first:
          name: _Cutoff
        second: .5
      data:
        first:
          name: _GlowV
        second: 4.95608664
      data:
        first:
          name: _EmissionLM
        second: 1
      data:
        first:
          name: _RefAmount
        second: 1
      data:
        first:
          name: _RefBias
        second: 1
      data:
        first:
          name: _RefLum
        second: 0
      data:
        first:
          name: _RimBias
        second: 1
    m_Colors:
      data:
        first:
          name: _Color
        second: {r: .230968818, g: .531759441, b: .654411793, a: 1}
      data:
        first:
          name: _ColorBase
        second: {r: .845588207, g: .198961914, b: .198961914, a: 0}
      data:
        first:
          name: _GlowColor
        second: {r: .230968818, g: .531759441, b: .654411793, a: 1}
      data:
        first:
          name: _RimColor
        second: {r: 1, g: 1, b: 1, a: 1}
