%YAML 1.1
%TAG !u! tag:unity3d.com,2011:
--- !u!21 &2100000
Material:
  serializedVersion: 3
  m_ObjectHideFlags: 0
  m_PrefabParentObject: {fileID: 0}
  m_PrefabInternal: {fileID: 0}
  m_Name: Trail Ref
  m_Shader: {fileID: 4800000, guid: dc448eccef8584457bf345886e7c22ad, type: 3}
  m_ShaderKeywords: []
  m_CustomRenderQueue: 2998
  m_SavedProperties:
    serializedVersion: 2
    m_TexEnvs:
      data:
        first:
          name: _MainTex
        second:
          m_Texture: {fileID: 2800000, guid: 409a498c890b74c2a9338c8b1d5a2ffb, type: 3}
          m_Scale: {x: 1, y: 1}
          m_Offset: {x: 0, y: 0}
      data:
        first:
          name: _DiffuseTex
        second:
          m_Texture: {fileID: 0}
          m_Scale: {x: 1, y: 1}
          m_Offset: {x: 0, y: 0}
      data:
        first:
          name: _GlowTex
        second:
          m_Texture: {fileID: 2800000, guid: 409a498c890b74c2a9338c8b1d5a2ffb, type: 3}
          m_Scale: {x: 1, y: 1}
          m_Offset: {x: -20.0133572, y: 0}
      data:
        first:
          name: _Illum
        second:
          m_Texture: {fileID: 2800000, guid: 409a498c890b74c2a9338c8b1d5a2ffb, type: 3}
          m_Scale: {x: 1, y: 1}
          m_Offset: {x: 0, y: 0}
    m_Floats:
      data:
        first:
          name: _Cutoff
        second: .5
      data:
        first:
          name: _GlowV
        second: 2.07999992
      data:
        first:
          name: _EmissionLM
        second: 2
    m_Colors:
      data:
        first:
          name: _Color
        second: {r: .33088237, g: .778498888, b: 1, a: 1}
      data:
        first:
          name: _ColorBase
        second: {r: 1, g: 1, b: 1, a: 1}
      data:
        first:
          name: _GlowColor
        second: {r: .33088237, g: .778498888, b: 1, a: 1}
