%YAML 1.1
%TAG !u! tag:unity3d.com,2011:
--- !u!21 &2100000
Material:
  serializedVersion: 3
  m_ObjectHideFlags: 0
  m_PrefabParentObject: {fileID: 0}
  m_PrefabInternal: {fileID: 0}
  m_Name: Trail Begin
  m_Shader: {fileID: 4800000, guid: dc448eccef8584457bf345886e7c22ad, type: 3}
  m_ShaderKeywords: []
  m_CustomRenderQueue: 3003
  m_SavedProperties:
    serializedVersion: 2
    m_TexEnvs:
      data:
        first:
          name: _MainTex
        second:
          m_Texture: {fileID: 2800000, guid: 1d371e5b105934082a3d87de4e8a35bf, type: 3}
          m_Scale: {x: 1, y: 1}
          m_Offset: {x: 0, y: 0}
      data:
        first:
          name: _DecalTex
        second:
          m_Texture: {fileID: 0}
          m_Scale: {x: 1, y: 1}
          m_Offset: {x: 0, y: 0}
      data:
        first:
          name: _DiffuseTex
        second:
          m_Texture: {fileID: 2800000, guid: bf04969067580d44eaface4d4d49f41c, type: 3}
          m_Scale: {x: 1, y: 1}
          m_Offset: {x: 0, y: 0}
      data:
        first:
          name: _GlowTex
        second:
          m_Texture: {fileID: 2800000, guid: 1d371e5b105934082a3d87de4e8a35bf, type: 3}
          m_Scale: {x: .99000001, y: 1}
          m_Offset: {x: 0, y: 818.006897}
      data:
        first:
          name: _Illum
        second:
          m_Texture: {fileID: 2800000, guid: 1d371e5b105934082a3d87de4e8a35bf, type: 3}
          m_Scale: {x: 1, y: 1}
          m_Offset: {x: 0, y: 0}
      data:
        first:
          name: _Cube
        second:
          m_Texture: {fileID: 0}
          m_Scale: {x: 1, y: 1}
          m_Offset: {x: 0, y: 0}
      data:
        first:
          name: _LightmapTex
        second:
          m_Texture: {fileID: 0}
          m_Scale: {x: 1, y: 1}
          m_Offset: {x: 0, y: 0}
    m_Floats:
      data:
        first:
          name: _Cutoff
        second: .5
      data:
        first:
          name: _GlowV
        second: 1
      data:
        first:
          name: _EmissionLM
        second: 1
      data:
        first:
          name: _RefAmount
        second: 1
      data:
        first:
          name: _RefBias
        second: 1
      data:
        first:
          name: _RimBias
        second: 1
    m_Colors:
      data:
        first:
          name: _Color
        second: {r: .727941155, g: .954969704, b: 1, a: 1}
      data:
        first:
          name: _ColorBase
        second: {r: 0, g: 0, b: 0, a: 0}
      data:
        first:
          name: _GlowColor
        second: {r: .727941155, g: .954969704, b: 1, a: 1}
      data:
        first:
          name: _RimColor
        second: {r: 1, g: 1, b: 1, a: 1}
