%YAML 1.1
%TAG !u! tag:unity3d.com,2011:
--- !u!21 &2100000
Material:
  serializedVersion: 3
  m_ObjectHideFlags: 0
  m_PrefabParentObject: {fileID: 0}
  m_PrefabInternal: {fileID: 0}
  m_Name: UNO - Plane4
  m_Shader: {fileID: 4800000, guid: fac60d674376f904b99f34c72dbe77c8, type: 3}
  m_ShaderKeywords: []
  m_CustomRenderQueue: 3004
  m_SavedProperties:
    serializedVersion: 2
    m_TexEnvs:
      data:
        first:
          name: _MainTex
        second:
          m_Texture: {fileID: 2800000, guid: e626e34f7ffabdc48aae135baffbc6ef, type: 3}
          m_Scale: {x: 1, y: 1}
          m_Offset: {x: 0, y: 0}
      data:
        first:
          name: _DecalTex
        second:
          m_Texture: {fileID: 0}
          m_Scale: {x: 1, y: 1}
          m_Offset: {x: 0, y: 0}
      data:
        first:
          name: _DiffuseTex
        second:
          m_Texture: {fileID: 2800000, guid: e626e34f7ffabdc48aae135baffbc6ef, type: 3}
          m_Scale: {x: 1, y: 1}
          m_Offset: {x: 0, y: 0}
      data:
        first:
          name: _Illum
        second:
          m_Texture: {fileID: 0}
          m_Scale: {x: 1, y: 1}
          m_Offset: {x: 0, y: 0}
      data:
        first:
          name: _Cube
        second:
          m_Texture: {fileID: 0}
          m_Scale: {x: 1, y: 1}
          m_Offset: {x: 0, y: 0}
      data:
        first:
          name: _LightmapTex
        second:
          m_Texture: {fileID: 0}
          m_Scale: {x: 1, y: 1}
          m_Offset: {x: 0, y: 0}
    m_Floats:
      data:
        first:
          name: _Cutoff
        second: .5
      data:
        first:
          name: _EmissionLM
        second: 2
      data:
        first:
          name: _RefAmount
        second: 1
      data:
        first:
          name: _RefBias
        second: 1
      data:
        first:
          name: _RimBias
        second: 1
      data:
        first:
          name: _EmissionV
        second: 1
    m_Colors:
      data:
        first:
          name: _Color
        second: {r: .301586121, g: .727941155, b: .165927753, a: 1}
      data:
        first:
          name: _ColorBase
        second: {r: .301586121, g: .727941155, b: .165927753, a: 1}
      data:
        first:
          name: _DiffuseColor
        second: {r: .301960796, g: .725490212, b: .164705887, a: 1}
      data:
        first:
          name: _RimColor
        second: {r: 1, g: 1, b: 1, a: 1}
